{
  "builders": [
  {    
    "type": "qemu",
	"accelerator": "kvm",
    "communicator": "winrm",
    "disk_size": 61440,
    "net_device": "virtio-net",
    "disk_interface": "virtio-scsi",
    "qemuargs": [[ "-m", "4096M" ],[ "-smp", "2" ],[ "-display", "gtk"]],
    "floppy_files": [
      "Autounattend.xml",
      "configure-winrm.ps1",
	  "drivers/"
    ],
    "headless": false,
    "iso_url": "en_windows_10_business_editions_version_21h1_x64_dvd_ec5a76c1.iso",
    "iso_checksum": "0FC1B94FA41FD15A32488F1360E347E49934AD731B495656A0A95658A74AD67F",    
	"iso_checksum_type": "sha256",
    "winrm_username": "vagrant",
    "winrm_password": "vagrant",
    "winrm_timeout": "6h",  
    "skip_compaction": false,
    "shutdown_command": "shutdown /s /t 5 /f /d p:4:1 /c \"Packer Shutdown\""
    }
  ],
  "provisioners": [
  {
    "type": "powershell",
    "scripts": [
      "no-expiration.ps1"
    ]},
  {
    "type": "windows-restart",
    "restart_command": "powershell \"& {(Get-WmiObject win32_operatingsystem).LastBootUpTime > C:\\ProgramData\\lastboot.txt; Restart-Computer -force}\"",
    "restart_check_command": "powershell -command \"& {if ((get-content C:\\ProgramData\\lastboot.txt) -eq (Get-WmiObject win32_operatingsystem).LastBootUpTime) {Write-Output 'Sleeping for 600 seconds to wait for reboot'; start-sleep 600} else {Write-Output 'Reboot complete'}}\""
  }

]
}

